<?xml version="1.0" encoding="UTF-8" standalone="no"?>
<!-- Created with Inkscape (http://www.inkscape.org/) -->

<svg
   xmlns:dc="http://purl.org/dc/elements/1.1/"
   xmlns:cc="http://creativecommons.org/ns#"
   xmlns:rdf="http://www.w3.org/1999/02/22-rdf-syntax-ns#"
   xmlns:svg="http://www.w3.org/2000/svg"
   xmlns="http://www.w3.org/2000/svg"
   xmlns:sodipodi="http://sodipodi.sourceforge.net/DTD/sodipodi-0.dtd"
   xmlns:inkscape="http://www.inkscape.org/namespaces/inkscape"
   width="210mm"
   height="297mm"
   viewBox="0 0 744.09448819 1052.3622047"
   id="svg4167"
   version="1.1"
   inkscape:version="0.91 r13725"
   sodipodi:docname="projections.svg">
  <defs
     id="defs4169" />
  <sodipodi:namedview
     id="base"
     pagecolor="#000000"
     bordercolor="#666666"
     borderopacity="1.0"
     inkscape:pageopacity="0"
     inkscape:pageshadow="2"
     inkscape:zoom="0.7"
     inkscape:cx="163.68223"
     inkscape:cy="557.0503"
     inkscape:document-units="px"
     inkscape:current-layer="layer1"
     showgrid="false"
     inkscape:window-width="1920"
     inkscape:window-height="1017"
     inkscape:window-x="-8"
     inkscape:window-y="192"
     inkscape:window-maximized="1" />
  <metadata
     id="metadata4172">
    <rdf:RDF>
      <cc:Work
         rdf:about="">
        <dc:format>image/svg+xml</dc:format>
        <dc:type
           rdf:resource="http://purl.org/dc/dcmitype/StillImage" />
        <dc:title></dc:title>
      </cc:Work>
    </rdf:RDF>
  </metadata>
  <g
     inkscape:label="Livello 1"
     inkscape:groupmode="layer"
     id="layer1">
    <path
       style="opacity:1;fill:#ffffff;fill-opacity:1;fill-rule:nonzero;stroke:none;stroke-width:2.5;stroke-linecap:round;stroke-linejoin:round;stroke-miterlimit:4;stroke-dasharray:none;stroke-dashoffset:0;stroke-opacity:1"
       d="M 244.82031 400.93359 C 226.45278 431.17675 189.96166 450.05602 154.50195 446.62695 C 146.54442 446.18361 138.80284 444.56502 131.42773 441.96484 L 131.42773 622.00586 C 131.42773 641.98899 147.51687 658.07617 167.5 658.07617 L 412.5 658.07617 C 432.48313 658.07617 448.57227 641.98899 448.57227 622.00586 L 448.57227 437.00391 C 448.57227 435.24165 448.4411 433.51165 448.19922 431.81836 C 428.33553 440.38668 406.49111 444.27489 384.92578 442.18945 C 352.4417 440.37967 322.56364 424.45091 300.67773 400.93359 L 244.82031 400.93359 z "
       id="rect4715"
       inkscape:export-xdpi="108"
       inkscape:export-ydpi="108" />
    <path
       style="opacity:1;fill:#ffffff;fill-opacity:1;fill-rule:nonzero;stroke:none;stroke-width:2.5;stroke-linecap:round;stroke-linejoin:round;stroke-miterlimit:4;stroke-dasharray:none;stroke-dashoffset:0;stroke-opacity:1"
       d="m -360.26339,334.97657 c -11.65641,0.39496 -84.27868,38.60387 -154.02148,78.35546 l 0,177.98047 c 72.09329,42.43591 146.91525,82.99393 152.85546,79.62109 11.67898,-6.63128 13.99836,-328.94939 2.41602,-335.74804 -0.27146,-0.15934 -0.69039,-0.22795 -1.25,-0.20898 z"
       id="path4717"
       inkscape:connector-curvature="0" />
    <path
       inkscape:connector-curvature="0"
       id="path4727"
       d="m 576.97357,414.15751 c -7.7714,0.26332 -56.18908,25.73743 -102.68701,52.24004 l 0,118.66061 c 48.06501,28.29226 97.94925,55.33253 101.90962,53.08384 7.78644,-4.42112 9.33278,-219.31246 1.61077,-223.84516 -0.18098,-0.10623 -0.46029,-0.15198 -0.83338,-0.13933 z"
       style="opacity:1;fill:#ffffff;fill-opacity:1;fill-rule:nonzero;stroke:none;stroke-width:2.5;stroke-linecap:round;stroke-linejoin:round;stroke-miterlimit:4;stroke-dasharray:none;stroke-dashoffset:0;stroke-opacity:1"
       inkscape:export-xdpi="108"
       inkscape:export-ydpi="108" />
    <path
       style="opacity:1;fill:#ffffff;fill-opacity:1;fill-rule:nonzero;stroke:none;stroke-width:2.5;stroke-linecap:round;stroke-linejoin:round;stroke-miterlimit:4;stroke-dasharray:none;stroke-dashoffset:0;stroke-opacity:1"
       id="path4729"
       sodipodi:type="arc"
       sodipodi:cx="396.28778"
       sodipodi:cy="310.78519"
       sodipodi:rx="105.72742"
       sodipodi:ry="105.72742"
       sodipodi:start="2.7910607"
       sodipodi:end="2.7909386"
       sodipodi:open="true"
       d="M 296.98963,347.09171 A 105.72742,105.72742 0 0 1 359.97822,211.48814 105.72742,105.72742 0 0 1 495.58372,274.4726 105.72742,105.72742 0 0 1 432.6034,410.08001 105.72742,105.72742 0 0 1 296.99406,347.10384"
       inkscape:export-xdpi="108"
       inkscape:export-ydpi="108" />
    <path
       d="m 90.840834,377.78316 a 76.539925,76.539925 0 0 1 45.599736,-98.16836 76.539925,76.539925 0 0 1 98.16975,45.59674 76.539925,76.539925 0 0 1 -45.59374,98.17114 76.539925,76.539925 0 0 1 -98.172536,-45.59074"
       sodipodi:open="true"
       sodipodi:end="2.7909386"
       sodipodi:start="2.7910607"
       sodipodi:ry="76.539925"
       sodipodi:rx="76.539925"
       sodipodi:cy="351.49954"
       sodipodi:cx="162.72638"
       sodipodi:type="arc"
       id="path4759"
       style="opacity:1;fill:#ffffff;fill-opacity:1;fill-rule:nonzero;stroke:none;stroke-width:2.5;stroke-linecap:round;stroke-linejoin:round;stroke-miterlimit:4;stroke-dasharray:none;stroke-dashoffset:0;stroke-opacity:1"
       inkscape:export-xdpi="108"
       inkscape:export-ydpi="108" />
    <rect
       ry="36.070625"
       y="770.93365"
       x="-758.57141"
       height="257.14285"
       width="317.14285"
       id="rect4761"
       style="opacity:1;fill:#ffffff;fill-opacity:1;fill-rule:nonzero;stroke:none;stroke-width:2.5;stroke-linecap:round;stroke-linejoin:round;stroke-miterlimit:4;stroke-dasharray:none;stroke-dashoffset:0;stroke-opacity:1" />
    <path
       style="opacity:1;fill:#ffffff;fill-opacity:1;fill-rule:nonzero;stroke:none;stroke-width:2.5;stroke-linecap:round;stroke-linejoin:round;stroke-miterlimit:4;stroke-dasharray:none;stroke-dashoffset:0;stroke-opacity:1"
       d="m -313.02643,784.15751 c -7.7714,0.26332 -56.18908,25.73743 -102.68701,52.24004 l 0,118.66061 c 48.06501,28.29226 97.94925,55.33254 101.90962,53.08384 7.78644,-4.4211 9.33278,-219.31246 1.61077,-223.84516 -0.18098,-0.10623 -0.46029,-0.15198 -0.83338,-0.13933 z"
       id="path4763"
       inkscape:connector-curvature="0" />
  </g>
</svg>
