{
  "type": "service_account",
  "project_id": "progettomldm-traffic-signs",
  "private_key_id": "38611b4202f71bd72022fb69e984f39096f84990",
  "private_key": "-----BEGIN PRIVATE KEY-----\nMIIEvwIBADANBgkqhkiG9w0BAQEFAASCBKkwggSlAgEAAoIBAQCQu+XCpFMWUXLR\nxGwtsuXnnq6bJoQSN8/o3rmZg/DN57A429FIcEN4VmrmLd+2ST9XJUpo0pMm8j/2\nQPiS69iTgYRmRThqTe9GpBc8x3VEQsDPVr92jrH+m3f7R4/A6gW9WQHsmbHYPIQp\nj2EinmtEQy3rPPuuqjOnr/FGw5dc7x2zsPnsuT6KLkGnKZilcK7A80oxUTvEb/2r\nOAsim78xrlEHKjZW0q9nDr8whxJxHlxPpYRrzTf0STTOfrcsDRZ3CewXsI08RvOT\n5S9p1IXiaV3aJWBX/U4zQj802NbrfGiQOE/zbLanVdQK8c1jhZ1EibvSXRD9EL0/\nuy9R5t+xAgMBAAECggEABbqKM5QRfdandsoRhhWIqAxN2PJDU/1Fi3AVZJAmXeAH\nx5hbxkQ7R24UORwjuLFZgneFZHTBQk9gXLzhmd8f6Wa8+NdQjlSbXe5sxQkYCSWj\nQBGs7mJjhTJeI2IHvJkGtSHqw5Spx2dNy99S9u3STRdjn+YACD/QX5jFMgnX2ePF\nxunFj6F/9MZe/uCe5kK2S5lcM8PMe9RJEB2Wzl15zJzIGyH1e4Gc7M5OgxsGYJwa\n3AhkAqEtTuE85SSdJW1Mv+1QqoQur0Pn/fd5VjFUM+Jh4Dklohj1wmC6r5NOdiCG\nBnrbqB9JW9GGIY/m6IAa5GrCLi6EiaipJKdXpEHHSQKBgQDIqdoWznZOwgFZkyox\nJ79cqcH06VvT+FMP9G0mvLgsg8yHb5vBdwFoWeNHHAAhnguw4yR6oKiNOs9dpP5z\nVm6S12r6BEVv28FxDz0m8IppfT0Fc1R4uuR9ypU8GIBplwT+ql9aMGdc9lfsDQor\nOSaFDEIkUy1FKmNFnYRSywVELwKBgQC4pZ2ZwJlt4TXPrWYQKaXRXnr5lh7UlvE4\nSJdJEMp9WofoyUoaVI636SAWohfeHA4uqsCXBBGG/k6jBD607afGBN6j7jo+ZM43\n6/AlIGdIr4b3O0qzlI0VjoY4kfvaVrzgOdf1qkFnmKCNFyp/laU5U/J2cRqbDZNV\njgilTOjCHwKBgQClV5d1bV/8m00jcui0Ii1C/DnuRQ6+RYKjxeLepWgYfe1ct7Ee\no6GMS2zD3iWZjbHSagdX5+Oao5fUcKydet2Xr1rdcgGJHwlw0H6yBEf4jhJm2FYF\nOPInWHLJVuMQnjimYto45WN2LSHbRg9X+DpuLOCfL85AjKHJ7fXnhpPrTwKBgQCX\n1cAyBXllLJM2Uk0iL00mTH3tLO/vOqvi73ZP49nOmJo35wXjfvLY8n+rfOEJiKJ0\n53508CiFjCsXy87QsriKkciOnsAQPI6C16XisbGcyJHATWZRI2+ccVWXwRuL4FVy\nQL6ASd98k7o6KvmMbn6uFITFtp39MH2eFaywWPzxWwKBgQC69BVleNyOSmSkvVbP\npbL1WRvVptSjvviaH0EefMMNiXomgYvp4pVa+461Bh/Kb4M1ez83O0UF94KkrT2y\nIPl1tCN3yAM2FOlz8m+z/vr31KXfBcO/iaiERs7GJuMxDnOSmB8K11rHoInbgp4P\nYcbTWDgvJ7lWr3sQ15sFcKGOew==\n-----END PRIVATE KEY-----\n",
  "client_email": "service-account@progettomldm-traffic-signs.iam.gserviceaccount.com",
  "client_id": "103623251011849107464",
  "auth_uri": "https://accounts.google.com/o/oauth2/auth",
  "token_uri": "https://oauth2.googleapis.com/token",
  "auth_provider_x509_cert_url": "https://www.googleapis.com/oauth2/v1/certs",
  "client_x509_cert_url": "https://www.googleapis.com/robot/v1/metadata/x509/service-account%40progettomldm-traffic-signs.iam.gserviceaccount.com"
}
